{
    "success": true,
    "response": {
      "app_token": "QlFqaHF3ZEZUK3pXTGlCYXJzbVhUOVRkYmhoK1lYeEpLQzNXQUNhUzZCV1lvS09YRCt1ZDI0TjFadmVwWTNrdg==",
      "user_nickname": "Ramraj",
      "user_email": "ramrajit29@gmail.com",
      "user_profile_image": "https://dev.globalnoticeboard.com/images/users/7f77760314066e5f468ea3500440d8cb.jpg"
    }
}